Place,Name,BirthYear,BodyweightKg,Bench1Kg,Bench2Kg,Bench3Kg,Best3BenchKg,WeightClassKg,Sex,CyrillicName,Equipment,Division,Event,TotalKg
1,Vladimir Balynets,1985,50.4,150,160,171.5,171.5,59,M,Владимир Балынец,Raw,Open,B,171.5
2,Oleg Smirnov,1990,57.6,125,-130,130,130,59,M,Олег Смирнов,Raw,Open,B,130
1,Albert Khabibulin,1989,65.2,170,177.5,-185,177.5,66,M,Альберт Хабибулин,Raw,Open,B,177.5
2,Artem Tavastsherna,1985,65.95,140,-152.5,152.5,152.5,66,M,Артем Тавастшерна,Raw,Open,B,152.5
3,Andrey Lukoshko,1987,65.65,140,145,147.5,147.5,66,M,Андрей Лукошко,Raw,Open,B,147.5
4,Aleksandr Zyukin,1996,65,-127.5,135,137.5,137.5,66,M,Александр Зюкин,Raw,Open,B,137.5
5,Sergey Sokolov #8,1983,65,130,135,-140,135,66,M,Сергей Соколов,Raw,Open,B,135
6,Sergey Katyshev,1981,65.4,120,127.5,-135,127.5,66,M,Сергей Катышев,Raw,Open,B,127.5
1,Stanislav Volskiy,1992,73.9,175,182.5,188,188,74,M,Станислав Вольский,Raw,Open,B,188
2,Valeriy Bogdanov,1970,72.7,165,175,-182.5,175,74,M,Валерий Богданов,Raw,Open,B,175
3,Elbrus Mamaliev,1991,73.85,-165,165,175,175,74,M,Эльбрус Мамалиев,Raw,Open,B,175
4,Aleksandr Shestakov,1992,73.35,170,-175,-175,170,74,M,Александр Шестаков,Raw,Open,B,170
1,Maksim Beloborodov,1983,80.5,185,190,,190,83,M,Максим Белобородов,Raw,Open,B,190
2,Aleksey Neveykov,1966,82.2,170,180,185,185,83,M,Алексей Невейков,Raw,Open,B,185
3,Igor Schurilov,1984,81.85,165,175,182.5,182.5,83,M,Игорь Щурилов,Raw,Open,B,182.5
4,Sergey Melekhin,1972,82.6,175,-182.5,182.5,182.5,83,M,Сергей Мелехин,Raw,Open,B,182.5
5,Dmitriy Shamiev,1993,80.5,-170,175,-177.5,175,83,M,Дмитрий Шамиев,Raw,Open,B,175
6,Ivan Kabalin,1977,82.55,150,160,170,170,83,M,Иван Кабалин,Raw,Open,B,170
7,Andrey Semenov,1978,82.9,155,165,-170,165,83,M,Андрей Семенов,Raw,Open,B,165
8,Vladyslav Apanasenko,1992,83,152.5,162.5,-172.5,162.5,83,M,Владислав Апанасенко,Raw,Open,B,162.5
9,Nikolay Bertov,1985,82.35,150,152.5,-170,152.5,83,M,Николай Бертов,Raw,Open,B,152.5
1,Aleksey Drozdov,1988,93,237.5,240,-242.5,240,93,M,Алексей Дроздов,Raw,Open,B,240
2,Ivan Sukin,1990,91.5,180,185,-192.5,185,93,M,Иван Сукин,Raw,Open,B,185
3,Dmitriy Pustovalov,1985,92.1,175,180,-192.5,180,93,M,Дмитрий Пустовалов,Raw,Open,B,180
4,Ilya Epikhov,1990,87.75,135,142.5,-147.5,142.5,93,M,Илья Епихов,Raw,Open,B,142.5
5,Vadim Korotyaev,1989,91.75,120,-132.5,-132.5,120,93,M,Вадим Коротяев,Raw,Open,B,120
1,Kirill Mogilnikov,1990,97.25,235,245,-248,245,105,M,Кирилл Могильников,Raw,Open,B,245
2,Aleksey Solovyev #1,1990,102.45,232.5,240,-248,240,105,M,Алексей Соловьев,Raw,Open,B,240
3,Aleksandr Basenko,1991,103.75,215,222.5,-225,222.5,105,M,Александр Басенко,Raw,Open,B,222.5
4,Aleksandr Chebotarev,1988,100.85,215,220,-225,220,105,M,Александр Чеботарев,Raw,Open,B,220
5,Alexei Kudryavtsev,1988,103.05,-210,210,-222.5,210,105,M,Алексей Кудрявцев,Raw,Open,B,210
6,Andrey Shalagin,1991,97.15,145,147.5,152.5,152.5,105,M,Андрей Шалагин,Raw,Open,B,152.5
DQ,Kirill Krivetskiy,1990,100.45,,,,,105,M,Кирилл Кривецкий,Raw,Open,B,
DQ,Aleksandr Vulikh,1986,103.35,,,,,105,M,Александр Вулих,Raw,Open,B,
1,Denis Kuzin,1989,115.1,-220,-232.5,235,235,120,M,Денис Кузин,Raw,Open,B,235
2,Eduard Surov,1976,119.25,-230,230,-237.5,230,120,M,Эдуард Суров,Raw,Open,B,230
3,Sergey Selezen,1980,120,220,230,-237.5,230,120,M,Сергей Селезень,Raw,Open,B,230
4,Vadim Idikov,1985,116.85,180,187.5,192.5,192.5,120,M,Вадим Идиков,Raw,Open,B,192.5
5,Kirill Suryadnov,1982,115.5,185,-192.5,-192.5,185,120,M,Кирилл Суряднов,Raw,Open,B,185
DQ,Mykhaylo Paller,1980,114.5,-220,,,,120,M,Михайло Паллер,Raw,Open,B,
1,Mikhail Korostin,1984,143.1,-230,230,232.5,232.5,120+,M,Михаил Коростин,Raw,Open,B,232.5
2,Dmitriy Amosov,1988,127.55,220,227.5,230,230,120+,M,Дмитрий Амосов,Raw,Open,B,230
3,Vitaliy Morozevich,1966,205,210,220,,220,120+,M,Виталий Морозевич,Raw,Open,B,220
4,Kirill Karlyukov,1982,125.8,205,217.5,-222.5,217.5,120+,M,Кирилл Карлюков,Raw,Open,B,217.5
1,Ekaterina Sokolova,1996,46.25,45,47.5,-50,47.5,47,F,Екатерина Соколова,Raw,Open,B,47.5
2,Ekaterina Pilipenko,1996,46.65,35,40,42.5,42.5,47,F,Екатерина Пилипенко,Raw,Open,B,42.5
1,Alina Sarycheva,1999,50.9,90,-95,,90,52,F,Алина Сарычева,Raw,Open,B,90
2,Natalya Sheveleva,1975,51,60,65,-67.5,65,52,F,Наталья Шевелева,Raw,Open,B,65
3,Irina Shtern,1999,51.9,55,60,-62.5,60,52,F,Ирина Штерн,Raw,Open,B,60
4,Evgeniya Galushina,1988,51.85,-45,45,52.5,52.5,52,F,Евгения Галушина,Raw,Open,B,52.5
1,Anna Birzhevaya,1992,56.2,100,107.5,112,112,57,F,Анна Биржевая,Raw,Open,B,112
2,Kristina Oparina,1996,55.75,62.5,65,-67.5,65,57,F,Кристина Опарина,Raw,Open,B,65
3,Tatyana Vishnevskaya,1987,56.55,60,-65,-65,60,57,F,Татьяна Вишневская,Raw,Open,B,60
4,Darya Sokolova,1992,56.05,-47.5,47.5,-52.5,47.5,57,F,Дарья Соколова,Raw,Open,B,47.5
1,Valentina Nelyubova,1966,62.65,100,105,-110,105,63,F,Валентина Нелюбова,Raw,Open,B,105
2,Ekaterina Nemets,1990,60.05,90,-95,-95,90,63,F,Екатерина Немец,Raw,Open,B,90
3,Valeriya Penyevskaya,1997,61.8,70,75,80,80,63,F,Валерия Пеньевская,Raw,Open,B,80
4,Natalya Zemtsovskaya,1993,62.65,60,65,70,70,63,F,Наталья Земцовская,Raw,Open,B,70
5,Olesya Butusova,1988,62.6,65,67.5,-70,67.5,63,F,Олеся Бутусова,Raw,Open,B,67.5
6,Darya Shpanova,1990,61.95,55,-60,-60,55,63,F,Дарья Шпанова,Raw,Open,B,55
1,Elena Parfenova,1966,66.35,100,107.5,112.5,112.5,72,F,Елена Парфенова,Raw,Open,B,112.5
2,Natalya Bobkova,1983,70.85,90,97.5,-102.5,97.5,72,F,Наталья Бобкова,Raw,Open,B,97.5
3,Irina Ivacheva,1969,71.1,92.5,97.5,-100,97.5,72,F,Ирина Ивачева,Raw,Open,B,97.5
4,Larisa Arkhangelskaya,1984,72,90,92.5,-100,92.5,72,F,Лариса Архангельская,Raw,Open,B,92.5
5,Anna Sverchkova,1991,68.45,75,-82.5,-82.5,75,72,F,Анна Сверчкова,Raw,Open,B,75
1,Elena Ivanova,1992,80.35,95,102.5,-107.5,102.5,84,F,Елена Иванова,Raw,Open,B,102.5
2,Amaliya Naam,1995,78.95,85,92.5,95,95,84,F,Амалия Наам,Raw,Open,B,95
3,Mariia Erokhina,1995,72.05,85,90,92.5,92.5,84,F,Мария Ерохина,Raw,Open,B,92.5
1,Mariya Zyryanova,1983,125.9,125,132.5,,132.5,84+,F,Мария Зырянова,Raw,Open,B,132.5
2,Anna Gavrilova,1988,117.55,115,122.5,127.5,127.5,84+,F,Анна Гаврилова,Raw,Open,B,127.5
