Place,Name,Sex,BirthDate,Age,Country,State,Equipment,Division,BodyweightKg,WeightClassKg,Squat1Kg,Squat2Kg,Squat3Kg,Squat4Kg,Best3SquatKg,Bench1Kg,Bench2Kg,Bench3Kg,Best3BenchKg,Deadlift1Kg,Deadlift2Kg,Deadlift3Kg,Best3DeadliftKg,TotalKg,Event
1,Emma Smith,F,2000-04-05,21,USA,OH,Raw,Juniors 20-23,63.9,67.5,-115,120,122.5,,122.5,60,65,-70,65,130,132.5,137.5,137.5,325,SBD
1,Chelsea Seufert,F,1991-04-25,30,USA,NY,Raw,Open,62.3,67.5,110,120,125,,125,57.5,62.5,65,65,142.5,155,162.5,162.5,352.5,SBD
1,Rachael Falkman,F,1994-09-28,26,USA,OH,Raw,Open,68.2,75,125,135,147.5,,147.5,65,-67.5,-67.5,65,152.5,167.5,-177.5,167.5,380,SBD
2,Alexis Barnes,F,1997-04-13,24,USA,OH,Raw,Open,71.1,75,112.5,120,127.5,,127.5,67.5,75,82.5,82.5,125,137.5,145,145,355,SBD
3,Shay-lon Moss,F,1992-03-22,29,USA,OH,Raw,Open,73.8,75,102.5,105,115,,115,60,-65,-65,60,147.5,157.5,-162.5,157.5,332.5,SBD
1,Christina Williams,F,1996-09-13,24,USA,OH,Raw,Open,84.4,90,112.5,117.5,122.5,,122.5,62.5,67.5,-72.5,67.5,130,140,142.5,142.5,332.5,SBD
1,Meghan Martin,F,1991-06-01,30,USA,OH,Raw,Open,94.4,90+,150,162.5,175,,175,65,72.5,77.5,77.5,147.5,162.5,175,175,427.5,SBD
2,Madison Reiheld,F,1993-03-23,28,USA,OH,Raw,Open,105.7,90+,112.5,120,127.5,,127.5,70,75,80,80,142.5,150,155,155,362.5,SBD
1,Amanda Dolan,F,1985-07-03,36,USA,OH,Raw,Submasters 35-39,55,56,90,100,-112.5,,100,50,55,60,60,90,105,110,110,270,SBD
1,Josephine Klingshirn,M,1999-06-18,22,USA,OH,Raw,Juniors 20-23,59.5,60,90,95,102.5,,102.5,42.5,50,-55,50,107.5,112.5,120,120,272.5,SBD
1,Skyler Holmes,M,2001-04-10,20,USA,OH,Raw,Juniors 20-23,70.2,75,147.5,157.5,165,,165,97.5,102.5,107.5,107.5,-170,170,182.5,182.5,455,SBD
1,Korrey Moyto,M,2000-04-07,21,USA,OH,Raw,Juniors 20-23,79.5,82.5,190,-205,215,,215,105,115,-122.5,115,220,235,-245,235,565,SBD
1,Logan Baker #1,M,1997-12-08,23,USA,OH,Raw,Juniors 20-23,98.9,100,210,222.5,235,,235,135,142.5,147.5,147.5,222.5,240,255,255,637.5,SBD
2,Dimitri Blackwell,M,1998-09-14,22,USA,OH,Raw,Juniors 20-23,96.3,100,190,205,222.5,,222.5,120,130,140,140,235,250,272.5,272.5,635,SBD
3,Guy Foust,M,1998-08-09,22,USA,OH,Raw,Juniors 20-23,98.3,100,215,225,230,,230,135,142.5,150,150,230,245,-257.5,245,625,SBD
4,Zach Musarra,M,1999-06-15,22,USA,OH,Raw,Juniors 20-23,95.8,100,165,175,182.5,,182.5,125,132.5,137.5,137.5,185,200,-212.5,200,520,SBD
DQ,Jon Jarrett,M,1999-10-15,21,USA,OH,Raw,Juniors 20-23,97.3,100,165,167.5,172.5,,172.5,125,130,132.5,132.5,,,,,,SBD
1,William Naugle Jr,M,1979-09-10,41,USA,OH,Raw,Masters 40-44,116,125,167.5,177.5,187.5,,187.5,115,117.5,120,120,175,185,-197.5,185,492.5,SBD
1,Terry Johnson,M,1972-05-24,49,USA,PA,Raw,Masters 45-49,123.3,125,180,187.5,-192.5,,187.5,112.5,120,125,125,180,187.5,190,190,502.5,SBD
1,Logan Chancey,M,1996-12-03,24,USA,OH,Raw,Open,67.1,67.5,165,175,-180,,175,100,105,110,110,190,205,-212.5,205,490,SBD
2,Michael Painter,M,1993-10-18,27,USA,OH,Raw,Open,64.5,67.5,137.5,150,-157.5,,150,42.5,47.5,50,50,147.5,160,-172.5,160,360,SBD
1,Sean Moore,M,1998-03-06,23,USA,PA,Raw,Open,73.9,75,145,155,165,,165,82.5,90,97.5,97.5,180,195,212.5,212.5,475,SBD
1,Cordaireus Percy-Hubbard,M,1996-04-23,25,USA,OH,Raw,Open,80.6,82.5,200,217.5,-222.5,,217.5,150,155,160,160,250,-272.5,272.5,272.5,650,SBD
2,Nick Mersinas,M,1993-03-29,28,USA,OH,Raw,Open,82.3,82.5,200,217.5,-227.5,,217.5,120,125,-130,125,245,-265,-272.5,245,587.5,SBD
3,Joshua Perison,M,1996-06-04,25,USA,OH,Raw,Open,80.1,82.5,155,165,175,,175,115,122.5,-127.5,122.5,210,225,-240,225,522.5,SBD
4,Jacob Frisch,M,1990-02-19,31,USA,OH,Raw,Open,80.9,82.5,125,140,150,,150,115,120,-130,120,165,175,185,185,455,SBD
1,Christopher Gary,M,1988-11-03,32,USA,OH,Raw,Open,89.1,90,252.5,270,277.5,,277.5,182.5,195,205,205,292.5,312.5,-325,312.5,795,SBD
2,Jacob Stanley,M,1996-03-28,25,USA,OH,Raw,Open,88.5,90,122.5,135,140,,140,112.5,120,-122.5,120,190,207.5,-210,207.5,467.5,SBD
1,Sal Christopher,M,1982-01-09,39,USA,NY,Raw,Open,97.6,100,265,282.5,290,,290,190,200,-205,200,292.5,310,-320,310,800,SBD
2,Guy Foust,M,1998-08-09,22,USA,OH,Raw,Open,98.3,100,215,225,230,,230,135,142.5,150,150,230,245,-257.5,245,625,SBD
3,Nate Metz,M,1988-01-12,33,USA,OH,Raw,Open,98.8,100,150,160,165,,165,105,110,-115,110,195,-210,210,210,485,SBD
DQ,Shane Beck,M,1996-03-19,25,USA,OH,Raw,Open,97.6,100,-245,247.5,250,,250,-152.5,155,-167.5,155,-292.5,-292.5,-292.5,,,SBD
1,Jared Monaco,M,1988-10-29,32,USA,OH,Raw,Open,106.8,110,205,217.5,227.5,,227.5,137.5,147.5,152.5,152.5,245,267.5,-275,267.5,647.5,SBD
1,Jon Watts,M,1996-10-29,24,USA,OH,Raw,Open,118.9,125,260,272.5,282.5,,282.5,165,175,-182.5,175,305,320,332.5,332.5,790,SBD
2,Keith Maruna,M,1984-01-09,37,USA,OH,Raw,Open,117.5,125,242.5,260,275,,275,165,175,182.5,182.5,230,245,-255,245,702.5,SBD
3,Terry Johnson,M,1972-05-24,49,USA,PA,Raw,Open,123.3,125,180,187.5,-192.5,,187.5,112.5,120,125,125,180,187.5,190,190,502.5,SBD
1,Tristan Prokop,M,1997-05-13,24,USA,OH,Raw,Open,128,140,210,220,-232.5,,220,155,-167.5,-175,155,210,220,227.5,227.5,602.5,SBD
1,Jacob Moran,M,1994-11-16,26,USA,OH,Raw,Open,181.2,140+,310,327.5,345,,345,187.5,195,-205,195,220,255,277.5,277.5,817.5,SBD
2,Austin Cooper #1,M,1989-11-04,31,USA,MI,Raw,Open,144.3,140+,-260,-260,260,,260,190,192.5,-195,192.5,250,255,-260,255,707.5,SBD
3,Ty Hershey,M,1991-09-25,29,USA,OH,Raw,Open,147.7,140+,195,212.5,227.5,,227.5,155,162.5,170,170,195,205,-220,205,602.5,SBD
1,Keith Maruna,M,1984-01-09,37,USA,OH,Raw,Submasters 35-39,117.5,125,242.5,260,275,,275,165,175,182.5,182.5,230,245,-255,245,702.5,SBD
1,Jackson Szili,M,2006-03-19,15,USA,OH,Raw,Juniors 14-16,94.5,100,80,90,92.5,,92.5,60,65,70,70,115,125,137.5,137.5,300,SBD
1,Connor Raybould,M,2005-08-07,15,USA,OH,Raw,Juniors 14-16,105,110,145,152.5,165,172.5,165,97.5,102.5,110,110,232.5,-240,240,240,515,SBD
1,Nathan Johnson,M,2002-08-22,18,USA,OH,Raw,Juniors 17-19,73.6,75,132.5,140,147.5,,147.5,85,90,92.5,92.5,142.5,150,155,155,395,SBD
1,Tim Henderson,M,1989-07-04,32,USA,OH,Wraps,Open,88.4,90,215,-227.5,-227.5,,215,125,-137.5,-142.5,125,205,225,-240,225,565,SBD
1,Alex Tschiegg,M,1995-02-22,26,USA,OH,Wraps,Open,96.7,100,290,-300,-300,,290,-200,200,207.5,207.5,297.5,320,,320,817.5,SBD
2,Robert Atha,M,2004-04-04,17,USA,OH,Wraps,Open,94.8,100,207.5,215,227.5,,227.5,125,137.5,142.5,142.5,207.5,210,232.5,232.5,602.5,SBD
1,Robert Atha,M,2004-04-04,17,USA,OH,Wraps,Juniors 17-19,94.8,100,207.5,215,227.5,,227.5,125,137.5,142.5,142.5,207.5,210,232.5,232.5,602.5,SBD
1,Terry Johnson,M,1972-05-24,49,USA,PA,Raw,Masters 45-49,123.3,125,,,,,,112.5,120,125,125,180,187.5,190,190,315,BD
1,Terry Johnson,M,1972-05-24,49,USA,PA,Raw,Open,123.3,125,,,,,,112.5,120,125,125,180,187.5,190,190,315,BD
1,Andrew Plummer,M,1978-10-28,42,USA,OH,Raw,Masters 40-44,116.3,125,,,,,,140,150,160,160,,,,,160,B
1,Terry Johnson,M,1972-05-24,49,USA,PA,Raw,Masters 45-49,123.3,125,,,,,,112.5,120,125,125,,,,,125,B
1,Terry Johnson,M,1972-05-24,49,USA,PA,Raw,Open,123.3,125,,,,,,112.5,120,125,125,,,,,125,B
