Division,WeightClassKg,Place,Name,Team,BodyweightKg,Best3SquatKg,Best3BenchKg,Best3DeadliftKg,TotalKg,Equipment,Event,Sex
Boys,51.71,1,Ricky Lopez,Frisco Centennial,50.98,149.69,92.99,181.44,424.11,Single-ply,SBD,M
Boys,51.71,2,Jared Banda,Frisco Reedy,48.63,81.65,56.7,102.06,240.4,Single-ply,SBD,M
Boys,51.71,3,Brandon Balam,Frisco Heritage,49.4,79.38,38.56,90.72,208.65,Single-ply,SBD,M
Boys,55.79,1,Rolando Guajardo,Frisco Centennial,51.98,113.4,70.31,113.4,297.1,Single-ply,SBD,M
Boys,59.87,1,Henry Mortenson,Frisco Liberty,58.79,161.03,79.38,145.15,385.55,Single-ply,SBD,M
Boys,59.87,2,Johnny Wilkins,Frisco Reedy,59.51,127.01,90.72,156.49,374.21,Single-ply,SBD,M
Boys,59.87,3,Nathan Yang,Frisco Heritage,59.83,127.01,90.72,142.88,360.61,Single-ply,SBD,M
Boys,59.87,4,Blake Battle,Frisco Liberty,59.33,129.27,70.31,151.95,351.53,Single-ply,SBD,M
Boys,67.13,1,Dillon Mironti,Frisco Liberty,65.77,165.56,113.4,161.03,439.98,Single-ply,SBD,M
Boys,67.13,2,Edward Zeng,Frisco Liberty,62.05,142.88,54.43,156.49,353.8,Single-ply,SBD,M
Boys,67.13,3,Gireesh Daggupati,Frisco Heritage,67.04,86.18,52.16,,138.35,Single-ply,SB,M
Boys,67.13,DQ,Logan West,Frisco Reedy,65.73,,,,,Single-ply,SBD,M
Boys,74.84,1,Justin Gipson,Frisco Reedy,74.43,204.12,115.67,197.31,517.1,Single-ply,SBD,M
Boys,74.84,2,Connor Smith #5,Frisco Centennial,73.57,156.49,108.86,154.22,419.57,Single-ply,SBD,M
Boys,74.84,3,Danny Marroquin,Frisco Liberty,73.07,156.49,108.86,149.69,415.04,Single-ply,SBD,M
Boys,74.84,4,Connor Wolfe,Frisco Heritage,70.4,136.08,81.65,154.22,371.95,Single-ply,SBD,M
Boys,74.84,5,Vincente Rivera,McKinney North,69.81,129.27,79.38,124.74,333.39,Single-ply,SBD,M
Boys,74.84,6,Ethan Tackitt,Frisco Heritage,69.9,106.59,68.04,147.42,322.05,Single-ply,SBD,M
Boys,74.84,DQ,Travis Torres,Frisco,72.57,136.08,90.72,,,Single-ply,SBD,M
Boys,82.1,1,Isaac Williams,Frisco Centennial,81.69,213.19,113.4,188.24,514.83,Single-ply,SBD,M
Boys,82.1,2,Trevor Heavner,Frisco Reedy,76.48,181.44,104.33,197.31,483.08,Single-ply,SBD,M
Boys,82.1,3,Josh Whytus,McKinney,75.98,183.7,83.91,204.12,471.74,Single-ply,SBD,M
Boys,82.1,4,Brendan Foster,Frisco,80.06,147.42,117.93,188.24,453.59,Single-ply,SBD,M
Boys,82.1,5,Jake Smith,McKinney,79.56,170.1,97.52,170.1,437.72,Single-ply,SBD,M
Boys,82.1,6,William Penny,Frisco Liberty,76.88,106.59,95.25,142.88,344.73,Single-ply,SBD,M
Boys,82.1,7,Tommy Warkins,Frisco Heritage,75.66,102.06,79.38,111.13,292.57,Single-ply,SBD,M
Boys,82.1,8,Woodson Andrews,McKinney Boyd,77.11,113.4,,,113.4,Single-ply,S,M
Boys,82.1,DQ,Dan Ton,Frisco,79.88,,,,,Single-ply,SBD,M
Boys,82.1,DQ,Ty Martin #1,Frisco Reedy,75.34,147.42,92.99,,,Single-ply,SBD,M
Boys,89.81,1,Chris Ponder,McKinney,88.5,217.72,156.49,231.33,605.55,Single-ply,SBD,M
Boys,89.81,2,Vance Hooper,Frisco Heritage,83.51,192.78,122.47,206.38,521.63,Single-ply,SBD,M
Boys,89.81,3,Dexter Green,Frisco Liberty,86.27,188.24,129.27,185.97,503.49,Single-ply,SBD,M
Boys,89.81,4,Andrew Mills,McKinney,88.13,154.22,108.86,181.44,444.52,Single-ply,SBD,M
Boys,89.81,5,Jefferey Whitehead,McKinney North,88.18,163.29,102.06,174.63,439.98,Single-ply,SBD,M
Boys,89.81,6,Jaden Ramey,McKinney Boyd,87.5,145.15,120.2,163.29,428.64,Single-ply,SBD,M
Boys,89.81,7,Jeremy Rios,McKinney,86.86,156.49,99.79,147.42,403.7,Single-ply,SBD,M
Boys,89.81,8,Zachery McMahon,McKinney North,86.82,151.95,81.65,158.76,392.36,Single-ply,SBD,M
Boys,89.81,9,Jaxon Holloman,Frisco Heritage,82.33,106.59,97.52,115.67,319.78,Single-ply,SBD,M
Boys,89.81,10,Carrett Brooks,Frisco,88.9,92.99,113.4,102.06,308.44,Single-ply,SBD,M
Boys,89.81,11,Kamari Wilkerson,Frisco,86.27,111.13,68.04,124.74,303.91,Single-ply,SBD,M
Boys,89.81,DQ,Nick Pog,McKinney Boyd,82.55,136.08,58.97,,,Single-ply,SBD,M
Boys,89.81,DQ,Filo Kolta,Frisco,87.04,,,,,Single-ply,SBD,M
Boys,89.81,DQ,Noah Salcido,Frisco Centennial,82.6,142.88,,,,Single-ply,SBD,M
Boys,89.81,DQ,Lawrence Lewis,Frisco Reedy,87.77,,,,,Single-ply,SBD,M
Boys,89.81,DQ,Jeff Hemmenway,Frisco Reedy,85.64,208.65,,,,Single-ply,SBD,M
Boys,99.79,1,Ryan Lara,Frisco Independence,90.72,229.06,138.35,215.46,582.87,Single-ply,SBD,M
Boys,99.79,2,Zach Barenberg,McKinney Boyd,99.29,181.44,127.01,185.97,494.42,Single-ply,SBD,M
Boys,99.79,3,Brandon Cambre,Frisco Independence,90.95,181.44,113.4,172.37,467.2,Single-ply,SBD,M
Boys,99.79,4,Brandon McClarnon,Frisco Centennial,94.94,183.7,97.52,158.76,439.98,Single-ply,SBD,M
Boys,99.79,5,Furman Roberts,McKinney North,93.17,163.29,108.86,165.56,437.72,Single-ply,SBD,M
Boys,99.79,6,Cody Gonzales,Frisco Heritage,96.25,136.08,104.33,142.88,383.29,Single-ply,SBD,M
Boys,99.79,7,Chris Busch,McKinney Boyd,99.11,136.08,81.65,138.35,356.07,Single-ply,SBD,M
Boys,99.79,DQ,Jacob Thompson,Frisco,99.43,172.37,,,,Single-ply,SBD,M
Boys,99.79,DQ,Pierce DeVaughn,Frisco,97.84,158.76,,142.88,,Single-ply,SBD,M
Boys,99.79,DQ,Ferguson Ohabor,Frisco Centennial,95.03,190.51,,,,Single-ply,SBD,M
Boys,109.77,1,Matt Hawk,Frisco Independence,104.55,229.06,138.35,215.46,582.87,Single-ply,SBD,M
Boys,109.77,2,Adrián Arce,McKinney,103.87,199.58,120.2,206.38,526.17,Single-ply,SBD,M
Boys,109.77,3,Taylor Heyen,Frisco Centennial,103.15,197.31,113.4,197.31,508.02,Single-ply,SBD,M
Boys,109.77,4,Collin Moore,Frisco Centennial,109.72,192.78,133.81,167.83,494.42,Single-ply,SBD,M
Boys,109.77,5,Khalil Lewis,McKinney North,103.92,176.9,104.33,210.92,492.15,Single-ply,SBD,M
Boys,109.77,6,James Craft,McKinney North,108.09,183.7,117.93,183.7,485.34,Single-ply,SBD,M
Boys,109.77,7,Kody Johnson,Frisco Heritage,102.01,136.08,111.13,158.76,405.97,Single-ply,SBD,M
Boys,109.77,8,Brent Matiscik,McKinney Boyd,102.33,149.69,77.11,142.88,369.68,Single-ply,SBD,M
Boys,109.77,DQ,Christian Cappiello,Frisco,101.88,124.74,115.67,,,Single-ply,SBD,M
Boys,109.77,DQ,Cesar Sandoval,Frisco Reedy,108.77,183.7,124.74,,,Single-ply,SBD,M
Boys,109.77,DQ,Kyle Ford,Frisco Liberty,106.23,,,,,Single-ply,SBD,M
Boys,124.74,1,Cody Ragsdale,Frisco Centennial,114.62,176.9,113.4,185.97,476.27,Single-ply,SBD,M
Boys,124.74,2,Mac Lyell,Frisco Liberty,109.95,174.63,106.59,183.7,464.93,Single-ply,SBD,M
Boys,124.74,3,Dreylan Washington,Frisco,111.95,170.1,113.4,156.49,439.98,Single-ply,SBD,M
Boys,124.74,DQ,Jason McConahey,McKinney,119.16,,,,,Single-ply,SBD,M
Boys,124.74,DQ,Tommy Pfingst,McKinney,123.42,154.22,102.06,,,Single-ply,SBD,M
Boys,124.74,DQ,Jp Kruse,Frisco Reedy,119.84,,,,,Single-ply,SBD,M
Boys,124.74+,1,Izeya Floyd,Frisco Reedy,127.82,219.99,142.88,213.19,576.06,Single-ply,SBD,M
Boys,124.74+,2,Deondra Fortman,McKinney,171.91,226.8,122.47,172.37,521.63,Single-ply,SBD,M
Boys,124.74+,3,Cooper Gschwend,Frisco Independence,135.58,192.78,136.08,183.7,512.56,Single-ply,SBD,M
Boys,124.74+,4,Kaleb Arnold,Frisco Heritage,137.94,165.56,113.4,174.63,453.59,Single-ply,SBD,M
Boys,124.74+,5,Kris Estep,McKinney,142.65,158.76,90.72,204.12,453.59,Single-ply,SBD,M
Boys,124.74+,6,Brandon Barker,Frisco Centennial,127.82,181.44,92.99,170.1,444.52,Single-ply,SBD,M
Boys,124.74+,7,Peyton Donofrio,McKinney North,125.65,154.22,104.33,167.83,426.38,Single-ply,SBD,M
Boys,,NS,Bradley Ricks,Frisco Liberty,,,,,,Single-ply,SBD,M
Boys,,NS,Kody Antonie,Frisco Liberty,,,,,,Single-ply,SBD,M
