Division,WeightClassKg,Place,Name,Team,BodyweightKg,Best3SquatKg,Best3BenchKg,Best3DeadliftKg,TotalKg,Equipment,Event,Sex,BirthDate
Boys,51.71,1,Carlos Gamez,Hitchcock,,115.67,68.04,117.93,301.64,Single-ply,SBD,M,
Boys,59.87,DQ,Kaiden Garza,Van Vleck,59.01,124.74,81.65,,,Single-ply,SBD,M,
Boys,67.13,1,Cody Armstrong,Van Vleck,66.54,140.61,72.57,165.56,378.75,Single-ply,SBD,M,
Boys,74.84,1,Austin Hill #3,Van Vleck,69.4,165.56,86.18,142.88,394.63,Single-ply,SBD,M,
Boys,82.1,1,Stephen Morales,Hitchcock,80.74,224.53,129.27,219.99,573.79,Single-ply,SBD,M,
Boys,82.1,2,Matthew Fleming,Hitchcock,80.29,204.12,99.79,181.44,485.34,Single-ply,SBD,M,
Boys,99.79,1,Wesley Moss,Van Vleck,95.39,199.58,111.13,183.7,494.42,Single-ply,SBD,M,
Boys,99.79,2,Garrett Mayfield,Van Vleck,97.52,158.76,108.86,174.63,442.25,Single-ply,SBD,M,
Boys,99.79,3,Caleb Montemayor,Van Vleck,99.38,138.35,86.18,138.35,362.87,Single-ply,SBD,M,
Boys,124.74,1,Wyatt Gobert,Van Vleck,124.01,238.14,154.22,224.53,616.89,Single-ply,SBD,M,
Boys,124.74,2,Ronnie Cathey,Van Vleck,124.01,215.46,113.4,174.63,503.49,Single-ply,SBD,M,
Boys,124.74,DQ,Erskin Hill,Hitchcock,113.85,185.97,102.06,,,Single-ply,SBD,M,
Boys,139.71+,1,Mikal Bryan,Hitchcock,148.91,222.26,142.88,197.31,562.45,Single-ply,SBD,M,
Boys,139.71+,2,Jacob Perez #9,Van Vleck,143.79,206.38,117.93,154.22,478.54,Single-ply,SBD,M,
